module github.com/farhan-helmy/service-rocket

go 1.17

require (
	github.com/andybalholm/brotli v1.0.4 // indirect
	github.com/aws/aws-sdk-go v1.44.71 // indirect
	github.com/gofiber/fiber/v2 v2.36.0 // indirect
	github.com/jinzhu/inflection v1.0.0 // indirect
	github.com/jinzhu/now v1.1.5 // indirect
	github.com/jmespath/go-jmespath v0.4.0 // indirect
	github.com/klauspost/compress v1.15.0 // indirect
	github.com/mattn/go-sqlite3 v1.14.12 // indirect
	github.com/valyala/bytebufferpool v1.0.0 // indirect
	github.com/valyala/fasthttp v1.38.0 // indirect
	github.com/valyala/tcplisten v1.0.0 // indirect
	golang.org/x/sys v0.0.0-20220227234510-4e6760a101f9 // indirect
	gorm.io/driver/sqlite v1.3.6 // indirect
	gorm.io/gorm v1.23.4 // indirect
)
